<svg width="393" height="150" viewBox="0 0 393 150" fill="none" xmlns="http://www.w3.org/2000/svg">
<path d="M30.1133 113.712C52.4328 155.44 99.2552 131.099 119.876 113.712C177.131 170.966 237.539 146.463 260.586 127.055C260.586 127.055 304.255 174.363 346.71 133.12C346.71 133.12 434.047 167.085 434.047 94.3038C435.26 74.8956 415.852 38.5051 370.97 33.6531C335.065 29.7714 322.854 54.6787 321.237 67.6175C253.308 -3.95036 163.545 45.7833 153.841 89.4518C153.841 89.4518 2.21396 61.5525 30.1133 113.712Z" fill="#705AA3"/>
<path d="M3.42703 82.1737C25.7465 123.901 72.5689 99.5602 93.1901 82.1737C150.444 139.428 210.853 114.925 233.9 95.5168C233.9 95.5168 277.568 142.824 320.024 101.582C320.024 101.582 407.361 135.546 407.361 62.7654C408.574 43.3572 389.166 6.96672 344.284 2.11467C308.379 -1.76698 296.168 23.1403 294.551 36.0791C226.622 -35.4888 136.859 14.2449 127.155 57.9134C127.155 57.9134 -24.4723 30.0141 3.42703 82.1737Z" fill="white"/>
</svg>
