<svg width="181" height="73" viewBox="0 0 181 73" fill="none" xmlns="http://www.w3.org/2000/svg">
<path fill-rule="evenodd" clip-rule="evenodd" d="M32.2297 70.0945C31.6813 70.1277 31.129 70.1445 30.5733 70.1445C13.6881 70.1445 0 54.6226 0 35.4753C0 16.328 13.6881 0.80603 30.5733 0.80603C40.8514 0.80603 49.945 6.5573 55.4878 15.3767C57.5972 15.2834 64.8489 15.1682 68.6 17.7168C70.8095 19.2179 75.2199 23.1012 75.2199 23.1012C75.2199 23.1012 76.2301 14.7298 82.3123 11.3061C95.3537 3.96525 103.034 16.6954 103.034 16.6954C103.034 16.6954 110.312 1.23435 133.189 7.76943C146.428 11.5512 148.37 19.724 148.37 19.724C148.37 19.724 182.443 15.7269 180.021 37.7854C176.841 66.742 147.41 59.1019 147.41 59.1019C147.41 59.1019 142.264 73.4177 112.709 72.6162C89.0993 71.976 77.9908 55.4075 77.9908 55.4075C77.9908 55.4075 76.0704 60.7968 67.5224 58.6381C64.7211 57.9307 62.4423 55.4075 62.4423 55.4075C62.4423 55.4075 56.865 67.7292 39.8121 70.0222C37.3043 70.3595 34.7219 70.3343 32.2297 70.0945Z" fill="#B7A6D2"/>
</svg>
